21 677 4377 1066 7463 2920 4008 7475 8310 6002 9393 5335 88 7965 9707 4525 8640 5970 9752 6670 6277 4618
15 4094 6783 2432 8175 2356 3869 2571 7928 5440 2465 187 3629 9847 6263 2247
13 5497 5299 84 1543 2135 1315 2519 6466 1757 7956 4078 8731 9799
11 3156 2949 9976 672 4309 1515 4090 5868 2695 6815 1776
11 4839 1335 5018 3253 3607 6412 4601 9313 713 3307 9979
8 7429 7399 1305 4742 568 6689 1560 4758
8 303 8292 1209 3442 1097 9619 5860 5341
7 1992 4379 7657 474 7861 8477 113
7 8518 9003 6822 423 4494 9563 4058
7 5192 9084 2735 5693 3817 5769 3696
6 4435 9514 2720 2883 5300 4098
6 3580 700 9305 519 3090 541
6 4059 769 3055 6706 6663 3008
6 5445 1273 7499 5324 9679 7435
6 606 7070 8708 549 8950 3026
5 6901 2917 9409 3167 1724
5 1138 5934 5235 7401 5343
5 1867 3549 4855 7040 9283
5 9888 6916 4071 2061 3918
5 273 6381 5086 55 2422
5 3444 6695 9325 6198 8574
4 6807 2316 5717 622
4 4307 117 2559 1005
5 5424 222 3855 5885 1588
4 6115 6831 372 219
4 7957 4894 9140 1353
4 961 24 4143 6961
4 8329 3555 7561 2915
4 920 4346 8962 5027
4 9675 375 7929 7849
4 2576 2869 3149 696
3 9523 5716 8878
4 3988 3103 29 567
4 4637 3371 2020 7711
4 157 1833 4150 6658
4 1664 4842 741 8554
4 1888 2912 5304 5487
3 9913 8395 7082
4 8406 5406 4495 7382
4 7141 2986 8840 611
4 1528 6228 8420 2409
3 9216 583 7119
3 585 8559 7109
3 3281 5598 2429
3 7952 3564 580
3 297 9207 7799
3 7640 734 8179
3 6952 1040 6900
3 3025 6541 3667
3 3471 2008 8564
3 2941 957 5161
3 3239 5381 9187
3 3743 4882 5222
3 8675 7877 4066
3 1735 6649 7140
2 61 6403
3 1978 8728 1879
3 6724 9411 1105
3 9581 5902 7455
2 4214 6031
2 768 4788
3 9020 9626 3049
3 6456 3030 2944
3 489 3692 8932
3 268 9291 8029
3 8342 2313 817
3 2278 554 658
3 610 3693 7028
3 1993 1866 8189
2 6361 2015
3 4687 8698 3575
3 8204 5881 789
3 6424 8520 5572
3 9698 2327 1651
3 6780 4056 8459
3 6160 6767 8224
3 7911 8102 2425
3 9901 6633 9105
3 7229 4586 7337
3 9670 1332 1973
3 3410 8213 2518
3 2531 6843 9562
3 394 7188 1792
3 5402 6965 7034
3 2774 7064 2059
2 4948 2424
3 6418 8783 7152
3 3168 1227 8523
2 2507 7810
2 1178 6747
3 8509 7709 7239
2 2828 5971
2 719 9320
3 8587 9820 3554
3 9733 1883 977
2 6044 1407
2 6656 2324
2 6694 1838
2 3697 5245
3 19 6485 559
2 6252 6951
2 1794 9405
2 6269 6529
2 2603 1414
2 8787 9046
2 4536 8758
2 1447 1637
2 6189 7687
2 4873 6662
2 3546 3249
2 5227 9449
2 9166 2738
2 6139 7287
2 7186 739
2 6502 477
2 3333 2233
2 8086 5213
2 6607 2589
2 8484 4877
2 1269 2942
2 5727 7156
2 5218 4583
2 1170 3826
2 3245 7180
2 7088 4546
2 311 135
2 3276 4781
2 1784 3651
2 8489 2641
2 7864 6493
2 3294 9649
2 7612 3640
2 1605 8209
2 4475 2079
2 6913 699
2 6404 5743
2 9406 5875
2 3197 5491
2 3005 9052
2 1384 8020
2 3579 1013
2 5808 5990
2 1609 2714
2 6329 6558
2 8425 5112
2 8736 5818
2 1372 1860
2 8262 2791
2 5387 2899
2 3655 5393
2 8557 3459
2 6123 5858
2 109 7210
2 4984 6068
2 3596 1194
2 1228 4575
2 7114 9246
2 1630 1852
2 5615 4170
2 4679 9527
2 7398 5698
2 9935 3461
2 5948 3578
2 3409 3424
2 7889 1024
2 3148 9666
2 7913 1
2 7993 2626
2 9347 6741
2 3540 9985
2 1406 1030
2 2536 8426
2 9473 9602
2 1323 8548
2 4428 4644
2 4387 5006
2 8302 2957
2 7471 6164
2 9402 3865
2 4260 608
2 7129 4164
2 9090 6155
2 1512 4635
2 6457 2230
2 6199 9556
2 1984 965
2 8458 9469
2 4414 6192
2 4706 874
2 7116 9012
2 7862 1563
2 4959 7927
2 4208 7638
2 4693 6756
2 7704 4084
1 8773
2 1773 864
2 3196 3910
2 2357 2401
2 1593 9944
2 842 7648
2 2166 7637
2 3208 1955
2 7198 442
2 9128 481
2 6849 2642
2 9137 6669
2 2838 3368
2 8158 2780
2 1113 3354
2 3257 3263
2 627 7248
2 7020 7546
2 7230 4920
2 9685 1421
2 2538 4299
2 8055 4064
2 5237 1640
2 8376 7086
2 9974 2690
2 8435 2495
2 3990 3602
2 9452 1233
2 3311 7631
2 2748 1959
2 7451 1904
2 7104 9385
2 7512 989
2 5060 839
2 166 2440
2 2006 8254
2 3160 8536
2 6924 1260
2 4223 9951
2 2784 4016
1 7013
2 4537 2856
2 7553 3058
2 7329 8440
2 3170 9575
1 563
2 8586 6352
2 2123 9353
2 2963 6856
2 726 9634
2 8699 332
2 5034 4482
2 5359 4202
2 7357 4107
2 9996 640
2 8629 5732
2 8021 3191
2 2512 7108
2 8713 6454
2 8290 5621
2 5746 1135
2 902 2570
2 328 5303
2 1489 7883
1 9550
2 8449 3915
2 9595 9524
2 9463 2896
2 9087 5511
2 6752 9492
2 8979 1684
2 2520 7698
2 1090 3906
2 8848 3594
2 2436 3680
2 3067 2333
2 1530 1797
2 1734 5156
2 5856 9064
2 6877 7492
2 3384 5917
2 6884 984
2 8739 8772
2 7846 6034
2 8323 2825
2 3758 5422
2 7891 8110
2 892 5428
2 4511 895
2 2928 3502
2 7117 9949
2 2143 7785
2 9306 7386
2 8104 4541
2 3029 1762
2 1100 4403
2 2711 1152
2 6159 4613
2 4200 5642
2 3138 8151
2 6851 1487
2 9191 9604
2 5654 595
2 6786 4862
2 2426 7096
2 271 2394
2 6740 1977
2 2293 5135
2 315 3290
2 4648 5170
2 2026 368
2 1674 3102
2 7792 2654
2 3891 7642
2 7428 5344
2 4233 6589
2 9920 3098
2 1689 9177
2 9274 7216
2 661 6374
2 5466 3062
2 8566 1846
2 3976 8860
2 8277 7315
2 7677 2011
2 4455 1859
2 5710 4065
2 2975 3434
2 8715 294
2 1251 6886
2 6168 7604
2 5500 3099
2 4935 3609
2 2335 2035
2 6455 7068
2 1625 3194
2 5189 4971
2 6735 5033
2 3849 1643
2 8774 1476
1 5649
2 3601 3981
2 5996 3465
2 245 9678
2 2681 1259
2 3176 3305
2 5089 7697
2 4910 7221
2 8203 3227
2 2511 8638
2 7406 7822
2 7585 3624
2 4194 4236
2 513 9438
2 7319 9639
2 6804 3505
2 9316 6999
2 5369 6460
2 2742 9251
2 8447 5910
2 8462 9849
2 206 953
2 1121 2909
2 4794 1820
2 697 163
2 4112 9248
2 4109 4916
2 6206 5302
2 6307 395
2 9813 2373
2 3104 6775
2 4661 3507
2 7224 2693
2 5049 7898
2 8370 7566
2 6004 4564
2 3989 5630
2 8328 6104
2 277 5176
2 2523 4378
2 1697 8895
2 8073 7918
2 6239 936
2 4196 9056
1 9282
1 9495
1 3786
2 6053 8345
1 8274
2 8832 8775
1 5554
1 4867
2 2455 8540
2 9965 2736
1 3773
2 5214 4473
1 8184
1 5535
2 7768 3115
1 3129
2 8892 7842
1 3317
1 128
1 2118
1 6450
